Register_File/register_file.vcd
$date
	Mon Jun 01 11:12:56 2026
$end
$version
	Icarus Verilog
$end
$timescale
	1ps
$end
$scope module register_file_tb $end
$var wire 8 ! r1_data [7:0] $end
$var wire 8 " r2_data [7:0] $end
$var reg 1 # clk $end
$var reg 3 $ r1_address [2:0] $end
$var reg 3 % r2_address [2:0] $end
$var reg 1 & reset $end
$var reg 3 ' w_address [2:0] $end
$var reg 8 ( w_data [7:0] $end
$var reg 1 ) we $end
$scope module dut $end
$var wire 1 * clk $end
$var wire 3 + r1_address [2:0] $end
$var wire 3 , r2_address [2:0] $end
$var wire 1 - reset $end
$var wire 3 . w_address [2:0] $end
$var wire 8 / w_data [7:0] $end
$var wire 1 0 we $end
$var integer 32 1 i [31:0] $end
$var reg 8 2 r1_data [7:0] $end
$var reg 8 3 r2_data [7:0] $end
$upscope $end
$upscope $end
$enddefinitions $end
#0
$dumpvars
bx 3
bx 2
bx 1
00
b0 /
b0 .
1-
b0 ,
b0 +
0*
0)
b0 (
b0 '
1&
b0 %
b0 $
0#
bx "
bx !
$end
#5000
b0 3
b0 "
b0 2
b0 !
b1000 1
1#
1*
#10000
0#
0*
#15000
1)
10
0&
0-
b1000 1
1#
1*
#20000
b110010 (
b110010 /
b11 '
b11 .
0#
0*
#25000
1#
1*
#30000
b11 $
b11 +
0)
00
0#
0*
#35000
b110010 2
b110010 !
1#
1*
#36000
1)
10
#40000
b1001111 (
b1001111 /
b100 '
b100 .
0#
0*
#45000
1#
1*
#50000
b100 $
b100 +
0)
00
0#
0*
#55000
b1001111 2
b1001111 !
1#
1*
#56000
1)
10
#60000
b10111 (
b10111 /
b10 '
b10 .
0#
0*
#65000
1#
1*
#70000
b100 %
b100 ,
b10 $
b10 +
0)
00
0#
0*
#75000
b1001111 3
b1001111 "
b10111 2
b10111 !
1#
1*
#76000
1)
10
#80000
b101101 (
b101101 /
b0 '
b0 .
0#
0*
#85000
1#
1*
#90000
b0 $
b0 +
0)
00
0#
0*
#95000
b0 2
b0 !
1#
1*
#100000
b1010110 (
b1010110 /
b1 '
b1 .
0#
0*
#105000
1#
1*
#110000
b1 $
b1 +
0#
0*
#115000
1#
1*
#116000
1)
10
#120000
b11 $
b11 +
b100001 (
b100001 /
b11 '
b11 .
0#
0*
#125000
b100001 2
b100001 !
1#
1*
#130000
b101 %
b101 ,
b101 $
b101 +
b110111 (
b110111 /
b101 '
b101 .
0#
0*
#135000
b110111 3
b110111 "
b110111 2
b110111 !
1#
1*
